<?xml version="1.0" encoding="UTF-8"?>
<svg xmlns="http://www.w3.org/2000/svg" xmlns:xlink="http://www.w3.org/1999/xlink" width="16pt" height="16pt" viewBox="0 0 16 16" version="1.1">
<g id="surface1">
<path style=" stroke:none;fill-rule:nonzero;fill:rgb(100%,100%,100%);fill-opacity:1;" d="M 0 13 L 16 13 L 16 15 L 0 15 Z M 2 9 L 4 9 L 4 12 L 2 12 Z M 5 5 L 7 5 L 7 12 L 5 12 Z M 8 8 L 10 8 L 10 12 L 8 12 Z M 11 2 L 13 2 L 13 12 L 11 12 Z M 11 2 "/>
</g>
</svg>
